{
    "fluentMethods": true,
    "relationships": [],
    "fields": [
        {
            "fieldName": "dateTime",
            "fieldType": "ZonedDateTime"
        },
        {
            "fieldName": "insiden",
            "fieldType": "String"
        },
        {
            "fieldName": "lokasi",
            "fieldType": "String"
        },
        {
            "fieldName": "potensiBahaya",
            "fieldType": "String"
        },
        {
            "fieldName": "intervensi",
            "fieldType": "String"
        },
        {
            "fieldName": "hasilPengamatan",
            "fieldType": "String"
        },
        {
            "fieldName": "tindakanLangsung",
            "fieldType": "String"
        },
        {
            "fieldName": "infoTambahan",
            "fieldType": "String"
        },
        {
            "fieldName": "intervensiMencegah",
            "fieldType": "String"
        }
    ],
    "changelogDate": "20170503070605",
    "entityTableName": "peka",
    "dto": "no",
    "pagination": "pagination",
    "service": "no"
}